{
  "agent_class" : "URPMcastAgent" ,
  
  "deserialize_to_Message" : true,
  
  "groups" :
  [
    {
      "group_id" : 1
    } ,
    {
      "group_id" : 2
    }
  ] ,
  
  "zookeeper" :
  {
    "location" : "node5" ,
    "port" : 2181,
    "path" : "$HOME/zoo/bin/zkServer.sh"
  } ,
  
  
  "rings" :
  [
    {
      "ring_id" : 1 ,
      "destination_groups" : [1]
    } ,
    {
      "ring_id" : 2 ,
      "destination_groups" : [2]
    } ,
    {
      "ring_id" : 3 ,
      "destination_groups" : [1, 2]
    }
  ] ,
  
  "ring_nodes" :
  [
    {
      "node_id" : 11 ,
      "node_location" : "node7" ,
      "node_rings" :
      [
        { "ring_id" : 1 , "roles" : ["acceptor", "proposer"] , "proposer_port" : 50001}
      ]
    } ,
    {
      "node_id" : 12 ,
      "node_location" : "node8" ,
      "node_rings" :
      [
        { "ring_id" : 1 , "roles" : ["acceptor"] }
      ]
    } ,      
    {
      "node_id" : 13 ,
      "node_location" : "node9" ,
      "node_rings" :
      [
        { "ring_id" : 1 , "roles" : ["acceptor"] }
      ]
    } ,
    {
      "node_id" : 21 ,
      "node_location" : "node10" ,
      "node_rings" :
      [
        { "ring_id" : 2 , "roles" : ["acceptor", "proposer"] , "proposer_port" : 50002}
      ]
    } ,
    {
      "node_id" : 22 ,
      "node_location" : "node11" ,
      "node_rings" :
      [
        { "ring_id" : 2 , "roles" : ["acceptor"] }
      ]
    } ,      
    {
      "node_id" : 23 ,
      "node_location" : "node12" ,
      "node_rings" :
      [
        { "ring_id" : 2 , "roles" : ["acceptor"] }
      ]
    } ,
    {
      "node_id" : 31 ,
      "node_location" : "node8" ,
      "node_rings" :
      [
        { "ring_id" : 3 , "roles" : ["acceptor", "proposer"] , "proposer_port" : 50003}
      ]
    } ,
    {
      "node_id" : 32 ,
      "node_location" : "node9" ,
      "node_rings" :
      [
        { "ring_id" : 3 , "roles" : ["acceptor"] }
      ]
    } ,      
    {
      "node_id" : 33 ,
      "node_location" : "node7" ,
      "node_rings" :
      [
        { "ring_id" : 3 , "roles" : ["acceptor"] }
      ]
    }
  ]
}